<?xml version="1.0" encoding="utf-8"?>
<!-- Generator: Adobe Illustrator 24.0.0, SVG Export Plug-In . SVG Version: 6.00 Build 0)  -->
<svg version="1.1" id="Layer_1" xmlns="http://www.w3.org/2000/svg" xmlns:xlink="http://www.w3.org/1999/xlink" x="0px" y="0px"
	 viewBox="0 0 120 120" style="enable-background:new 0 0 120 120;" xml:space="preserve">
<style type="text/css">
	.st0{fill:#FFFFFF;}
</style>
<g>
	<path class="st0" d="M80.999,7.42l1.166-3.205c5.369,2.135,10.38,5.027,14.94,8.622l-2.188,2.607
		C90.717,12.148,86.036,9.434,80.999,7.42z M77.571,6.179l1.167-3.207c-5.479-1.801-11.178-2.794-16.984-2.96v3.412
		C67.26,3.592,72.568,4.547,77.571,6.179z M112.536,38.893l3.199-1.164c-3.443-8.61-8.876-16.345-15.835-22.548l-2.189,2.609
		C104.149,23.545,109.261,30.75,112.536,38.893z M3.395,60c0-30.628,24.327-55.571,54.712-56.571V0.018
		C25.902,1.023,0,27.552,0,59.988c0,22.03,11.862,42.013,31.085,52.586l1.539-3.021C15.196,99.904,3.395,81.332,3.395,60z
		 M116.985,41.155l-3.2,1.164c1.828,5.563,2.82,11.506,2.82,17.681c0,8.26-1.77,16.106-4.95,23.181l3.048,1.487
		C118.219,76.9,120,68.607,120,59.988C120,53.537,118.986,47.211,116.985,41.155z M60,116.605c-8.631,0-16.81-1.935-24.13-5.39
		l-1.539,3.021c8.04,3.818,16.666,5.752,25.669,5.752c22.495,0,42.676-12.23,53.101-32.045l-3.05-1.488
		C100.553,104.387,81.705,116.605,60,116.605z"/>
	<path class="st0" d="M58.322,6.833C29.776,7.725,6.818,31.239,6.818,59.989c0,19.527,10.515,37.239,27.553,46.611l4.726-9.274
		c-13.544-7.582-21.891-21.743-21.891-37.337c0-23.02,18.3-41.875,41.116-42.761V6.833z M61.554,17.222
		c3.924,0.14,7.778,0.812,11.498,2.003l3.556-9.772c-4.857-1.596-9.907-2.476-15.054-2.624V17.222z M76.091,20.326
		c3.621,1.47,7.012,3.426,10.116,5.836l6.683-7.965c-4.042-3.187-8.484-5.751-13.243-7.643L76.091,20.326z M88.684,28.238
		c4.776,4.317,8.525,9.651,10.947,15.577l9.771-3.556c-3.052-7.632-7.867-14.488-14.035-19.986L88.684,28.238z M99.141,77.306
		l9.347,4.559c3.116-6.885,4.695-14.236,4.695-21.875c0-5.717-0.899-11.325-2.672-16.693l-9.771,3.556
		c1.365,4.233,2.056,8.645,2.056,13.137C102.795,66.027,101.567,71.844,99.141,77.306z M37.248,108.073
		c7.126,3.384,14.772,5.098,22.752,5.098c19.939,0,37.826-10.84,47.067-28.403l-9.346-4.558
		C90.243,94.175,75.934,102.784,60,102.784c-6.304,0-12.36-1.339-18.027-3.983L37.248,108.073z"/>
	<path class="st0" d="M38.063,58.902h6.888V30.217c2.441-0.465,4.97-0.829,7.586-1.09c2.615-0.262,5.376-0.392,8.283-0.392
		c3.022,0,5.929,0.261,8.719,0.785c2.79,0.523,5.231,1.482,7.324,2.877c2.093,1.395,3.763,3.313,5.013,5.754
		c1.249,2.441,1.875,5.58,1.875,9.416c0,3.546-0.61,6.54-1.831,8.981c-1.22,2.441-2.848,4.433-4.882,5.972
		c-2.035,1.541-4.359,2.646-6.975,3.313c-2.615,0.669-5.348,1.003-8.196,1.003h-5.929v5.057h13.95v7.934h-13.95v10.812H44.95V79.827
		h-6.888v-7.934h6.888v-5.057h-6.888V58.902z M55.936,58.641h4.534c1.569,0,3.065-0.188,4.49-0.567
		c1.424-0.378,2.66-0.973,3.706-1.787c1.046-0.814,1.875-1.903,2.485-3.27c0.611-1.366,0.915-3.008,0.915-4.926
		c0-3.545-0.959-6.06-2.877-7.542c-1.918-1.482-4.389-2.223-7.411-2.223c-1.163,0-2.267,0.044-3.313,0.131
		c-1.046,0.087-1.89,0.19-2.528,0.306V58.641z"/>
</g>
</svg>
